{
    "index": {
        "download_fdroid": "Download F-Droid", 
        "gpg_signature": "PGP Signature", 
        "introduction": "F-Droid is an installable catalogue of FOSS (Free and Open Source Software) applications for the Android platform. The client makes it easy to browse, install, and keep track of updates on your device.", 
        "screenshot": "F-Droid Android app screenshot", 
        "title": "What is F-Droid?"
    }, 
    "navigation": {
        "about": "About", 
        "browse": "Browse", 
        "contribute": "Contribute", 
        "documentation": "Docs", 
        "forum": "Forum", 
        "issues": "Issues", 
        "news": "News", 
        "repomaker": "Repomaker", 
        "tutorials": "Tutorials"
    }, 
    "package": {
        "author": "Author", 
        "build_metadata": "Build Metadata", 
        "changelog": "Changelog", 
        "donate": "Donate", 
        "download": "Download [file_extension]", 
        "flattr": "Flattr", 
        "gpg_signature": "PGP Signature", 
        "issue_tracker": "Issue Tracker", 
        "liberapay": "Liberapay", 
        "license": "License", 
        "minimum_android_version": "This version requires Android [android_version] or newer.", 
        "new_in_version": "New in version [latest_version]", 
        "packages": "Packages", 
        "permissions": "Permissions", 
        "signed_by_developer": "It is built and signed by the original developer.", 
        "signed_by_fdroid": "It is built and signed by F-Droid, and guaranteed to correspond to <a href=\"[source_code_url]\">this source tarball</a>.", 
        "source_code": "Source Code", 
        "suggest_downloading_via_fdroid": "Although APK downloads are available below to give you the choice, you should be aware that by installing that way you will not receive update notifications and it's a less secure way to download. We recommend that you install the F-Droid client and use that.", 
        "technical_info": "Technical info", 
        "version_info": "<b>Version [package_version]</b> ([package_version_code]) - Added on [package_added_date]", 
        "website": "Website"
    }, 
    "sidebars": {
        "donate": {
            "bank_transfer_name": "Name", 
            "bitcoin_alt": "Donate via Bitcoin", 
            "flattr_alt": "Donate via Flattr", 
            "heading": "Donate", 
            "liberapay_alt": "Donate via Liberapay", 
            "litecoin_alt": "Donate via Litecoin", 
            "paypal_alt": "Donate via PayPal", 
            "powered_by_donations": "F-Droid is powered by your donations!", 
            "via_bank_transfer": "Bank Transfer"
        }, 
        "last_updated": {
            "heading": "Last Updated"
        }, 
        "latest_packages": {
            "heading": "Latest Apps"
        }, 
        "news": {
            "heading": "News"
        }, 
        "search": {
            "heading": "Find Apps", 
            "noscript": "Requires JavaScript to be enabled"
        }
    }
}