{
    "index": {
        "download_fdroid": "TÉLÉCHARGEZ F-DROID", 
        "gpg_signature": "Signature PGP", 
        "introduction": "F-Droid est un catalogue installable d'applications de logiciels libres et Open Source pour la plate-forme Android. Le client facilite la navigation, l'installation et le suivi des mises à jour sur votre appareil.", 
        "screenshot": "Capture d'écran de l'application Android F-Droid", 
        "title": "Qu’est-ce que F-Droid ?"
    }, 
    "navigation": {
        "about": "À Propos", 
        "browse": "Explorer", 
        "contribute": "Contribuer", 
        "documentation": "Docs", 
        "forum": "Forum", 
        "issues": "Problèmes", 
        "news": "Nouvelles", 
        "repomaker": "Repomaker", 
        "tutorials": "Tutoriaux"
    }, 
    "package": {
        "author": "Auteur", 
        "build_metadata": "Métadonnées de construction", 
        "changelog": "Journal des modifications", 
        "donate": "Donner", 
        "download": "Télécharger l'[file_extension]", 
        "flattr": "Flattr", 
        "gpg_signature": "Signature PGP", 
        "issue_tracker": "Suivi des tickets", 
        "liberapay": "Liberapay", 
        "license": "Licence", 
        "minimum_android_version": "Cette version nécessite Android [android_version] ou ultérieur.", 
        "new_in_version": "Nouveauté de la version [latest_version]", 
        "packages": "Paquages", 
        "permissions": "Permissions", 
        "signed_by_developer": "Compilé et signé par le développeur original.", 
        "signed_by_fdroid": "Elle est construite et signée par F-Droid, et garantie comme correspondante à <a href=\"[source_code_url]\">cette archive source</a>.", 
        "source_code": "Code source", 
        "suggest_downloading_via_fdroid": "Bien que les APK soient disponibles au téléchargement ci-dessous, sachez qu'en installant de cette façon vous ne recevrez pas de notifications et c'est une façon moins sûre de télécharger. Nous vous recommandons d'installer le client F-Droid pour ça.", 
        "technical_info": "Informations techniques", 
        "version_info": "<b>Version [package_version]</b> ([package_version_code]) - Ajoutée le [package_added_date]", 
        "website": "Site web"
    }, 
    "sidebars": {
        "donate": {
            "bank_transfer_name": "Nom", 
            "bitcoin_alt": "Bitcoin", 
            "flattr_alt": "Flattr", 
            "heading": "Faire un don", 
            "liberapay_alt": "Faire un don avec Liberapay", 
            "litecoin_alt": "Faire un don en Litecoin", 
            "paypal_alt": "Faire un don avec PayPal", 
            "powered_by_donations": "F-Droid est alimenté par vos dons !", 
            "via_bank_transfer": "Virement"
        }, 
        "last_updated": {
            "heading": "Dernières mises à jour"
        }, 
        "latest_packages": {
            "heading": "Dernières applications"
        }, 
        "news": {
            "heading": "Nouvelles"
        }, 
        "search": {
            "heading": "Trouver des applis", 
            "noscript": "Nécessite que JavaScript soit activé"
        }
    }
}